…
====
#4
>d <- read_tsv(f, col_names = TRUE)
>head(d)
====
#5  
> file.choose()
[1] "C:\\Users\\BW\\Desktop\\Rinfo\\Data sets and text files\\CPDS-1960-2014-reduced-xlsx.xlsx"
> f<-"C:\\Users\\BW\\Desktop\\Rinfo\\Data sets and text files\\CPDS-1960-2014-reduced-xlsx.xlsx"
> d <- read_excel(f, sheet = 1, col_names = TRUE)
> d
# A tibble: 1,578 x 20
    year   country gov_right1 gov_cent1 gov_left1 gov_party      elect vturn womenpar
   <dbl>     <chr>      <dbl>     <dbl>     <dbl>     <dbl>     <dttm> <dbl>    <dbl>
 1  1960 Australia        100         0         0         1         NA  95.5      0.0
 2  1961 Australia        100         0         0         1 1961-12-09  95.3      0.0
 3  1962 Australia        100         0         0         1         NA  95.3      0.0
 4  1963 Australia        100         0         0         1 1963-11-30  95.7      0.0
 5  1964 Australia        100         0         0         1         NA  95.7      0.0
 6  1965 Australia        100         0         0         1         NA  95.7      0.0
 7  1966 Australia        100         0         0         1 1966-11-26  95.1      0.8
 8  1967 Australia        100         0         0         1         NA  95.1      0.8
 9  1968 Australia        100         0         0         1         NA  95.1      0.8
10  1969 Australia        100         0         0         1 1969-10-25  95.0      0.0
# ... with 1,568 more rows, and 11 more variables: realgdpgr <dbl>, inflation <dbl>,
#   debt_hist <dbl>, deficit <dbl>, ttl_labf <dbl>, labfopar <dbl>, unemp <dbl>,
#   pop <dbl>, pop15_64 <dbl>, pop65 <dbl>, elderly <dbl>
…
